…
Now we also have the columns Perioden_Date and Period_freq.

Filtering for years has just become easier, as we only need to filter column
Perioden_feq for “Y”.

Let’s do it:

Now that we have all the data we need, we can calculate the CPI of each year,
relative to a reference year. From the CBS data we just downloaded, the most
recent year is 2018. So this will also be out reference year.

## # A tibble: 57 x 6
##    Perioden Perioden_Date Perioden_freq JaarmutatieCPI_1 JaarmutatieCPIA… factor
##    <chr>    <date>        <fct>                    <dbl>            <dbl>  <dbl>
##  1 1963JJ00 1963-01-01    Y                          3.8               NA   1.04
##  2 1964JJ00 1964-01-01    Y                          5.5               NA   1.06
##  3 1965JJ00 1965-01-01    Y                          5.2               NA   1.05
##  4 1966JJ00 1966-01-01    Y                          5.8               NA   1.06
##  5 1967JJ00 1967-01-01    Y                          3.1               NA   1.03
##  6 1968JJ00 1968-01-01    Y                          3.7               NA   1.04
##  7 1969JJ00 1969-01-01    Y                          7.5               NA   1.08
##  8 1970JJ00 1970-01-01    Y                          4.4               NA   1.04
##  9 1971JJ00 1971-01-01    Y                          7.6               NA   1.08
## 10 1972JJ00 1972-01-01    Y                          7.8               NA   1.08
## # … with 47 more rows

To calculate CPIs for different years there are many ways to take it from here.
I will show one which is (hopefully) easily understandable/readable but
requires several steps.
For the unexperienced R user this comes at the benefit of readability but at the
cost of speed (although this might be negligible).

Let’s create a nice and clean data.frame and get rid of all the stuff we don’t
need. In the following, I will create a column with the years only using the
package lubridate. Then I will only keep columns of interest.

## # A tibble: 57 x 2
##     year factor
##    <dbl>  <dbl>
##  1  1963   1.04
##  2  1964   1.06
##  3  1965   1.05
##  4  1966   1.06
##  5  1967   1.03
##  6  1968   1.04
##  7  1969   1.08
##  8  1970   1.04
##  9  1971   1.08
## 10  1972   1.08
## # … with 47 more rows
…
